{
    "com.github.ulauncher.ulauncher-emoji": {
        "id": "com.github.ulauncher.ulauncher-emoji",
        "url": "https://github.com/Ulauncher/ulauncher-emoji",
        "updated_at": "2022-06-29T18:49:46.112218",
        "last_commit": "4c6af50d1c9a24d5aad2c597634ff0c634972a5c",
        "last_commit_time": "2021-08-08T19:19:59"
    },
    "com.github.zensoup.ulauncher-unicode": {
        "id": "com.github.zensoup.ulauncher-unicode",
        "url": "https://github.com/zensoup/ulauncher-unicode",
        "updated_at": "2022-06-29T18:55:30.628925",
        "last_commit": "0ad36c00a888e687b4bfbf76f266f1000040b337",
        "last_commit_time": "2019-07-11T06:53:31"
    },
    "com.github.mikebarkmin.ulauncher-duckduckgo": {
        "id": "com.github.mikebarkmin.ulauncher-duckduckgo",
        "url": "https://github.com/mikebarkmin/ulauncher-duckduckgo",
        "updated_at": "2022-06-29T18:58:03.340563",
        "last_commit": "f2ea6a187082c600a59acc9cca6e288d96f66cc0",
        "last_commit_time": "2021-08-07T18:51:44"
    },
    "com.github.nastuzzisamy.ulauncher-youtube-search": {
        "id": "com.github.nastuzzisamy.ulauncher-youtube-search",
        "url": "https://github.com/NastuzziSamy/ulauncher-youtube-search",
        "updated_at": "2022-06-29T19:11:01.574870",
        "last_commit": "fe855811358b2f15ec6ed69ca18e20639874fa28",
        "last_commit_time": "2021-03-27T11:29:18"
    }
}