{
    "4b6cdbb6-00e3-4bfd-821c-3efaf6dde30b": {
        "id": "4b6cdbb6-00e3-4bfd-821c-3efaf6dde30b",
        "name": "Google Search",
        "keyword": "g",
        "cmd": "https://google.com/search?q=%s",
        "icon": "/usr/share/ulauncher/media/google-search-icon.png",
        "is_default_search": true,
        "run_without_argument": false,
        "added": 1655930708.980727
    },
    "06c5acdf-9073-4ebf-97ba-97ed04cf3124": {
        "id": "06c5acdf-9073-4ebf-97ba-97ed04cf3124",
        "name": "Stack Overflow",
        "keyword": "so",
        "cmd": "https://stackoverflow.com/search?q=%s",
        "icon": "/usr/share/ulauncher/media/stackoverflow-icon.svg",
        "is_default_search": true,
        "run_without_argument": false,
        "added": 1655930708.9808095
    },
    "9d9e28ab-c168-40f4-9e37-32a1051f6f81": {
        "id": "9d9e28ab-c168-40f4-9e37-32a1051f6f81",
        "name": "Wikipedia",
        "keyword": "wiki",
        "cmd": "https://en.wikipedia.org/wiki/%s",
        "icon": "/usr/share/ulauncher/media/wikipedia-icon.png",
        "is_default_search": true,
        "run_without_argument": false,
        "added": 1655930708.980876
    },
    "491da6ee-1453-4be9-a904-205856340aa4": {
        "id": "491da6ee-1453-4be9-a904-205856340aa4",
        "name": "DuckDuckgo",
        "keyword": "dd",
        "cmd": "https://duckduckgo.com/?q=%s",
        "icon": "~/Imagens/duckduckgo.png",
        "is_default_search": true,
        "run_without_argument": false,
        "added": 1656535092.5072112
    },
    "7a978d20-4901-4851-9d3a-a878b8cda7c4": {
        "id": "7a978d20-4901-4851-9d3a-a878b8cda7c4",
        "name": "Reddit",
        "keyword": "rd",
        "cmd": "https://www.reddit.com/search/?q=%s",
        "icon": "~/Imagens/reddit.png",
        "is_default_search": true,
        "run_without_argument": false,
        "added": 1656535349.662425
    }
}